Flow report for fpga_intro
Fri Nov 11 17:35:43 2016
Quartus Prime Version 16.0.0 Build 211 04/27/2016 SJ Lite Edition


---------------------
; Table of Contents ;
---------------------
  1. Legal Notice
  2. Flow Summary
  3. Flow Settings
  4. Flow Non-Default Global Settings
  5. Flow Elapsed Time
  6. Flow OS Summary
  7. Flow Log
  8. Flow Messages
  9. Flow Suppressed Messages



----------------
; Legal Notice ;
----------------
Copyright (C) 1991-2016 Altera Corporation. All rights reserved.
Your use of Altera Corporation's design tools, logic functions 
and other software and tools, and its AMPP partner logic 
functions, and any output files from any of the foregoing 
(including device programming or simulation files), and any 
associated documentation or information are expressly subject 
to the terms and conditions of the Altera Program License 
Subscription Agreement, the Altera Quartus Prime License Agreement,
the Altera MegaCore Function License Agreement, or other 
applicable license agreement, including, without limitation, 
that your use is for the sole purpose of programming logic 
devices manufactured by Altera and sold by Altera or its 
authorized distributors.  Please refer to the applicable 
agreement for further details.



+-------------------------------------------------------------------------------+
; Flow Summary                                                                  ;
+---------------------------------+---------------------------------------------+
; Flow Status                     ; Successful - Fri Nov 11 17:35:43 2016       ;
; Quartus Prime Version           ; 16.0.0 Build 211 04/27/2016 SJ Lite Edition ;
; Revision Name                   ; fpga_intro                                  ;
; Top-level Entity Name           ; DE0_Nano_SoC_top_level                      ;
; Family                          ; Cyclone V                                   ;
; Device                          ; 5CSEMA4U23C6                                ;
; Timing Models                   ; Final                                       ;
; Logic utilization (in ALMs)     ; 1,365 / 15,880 ( 9 % )                      ;
; Total registers                 ; 2036                                        ;
; Total pins                      ; 11 / 314 ( 4 % )                            ;
; Total virtual pins              ; 0                                           ;
; Total block memory bits         ; 1,112,320 / 2,764,800 ( 40 % )              ;
; Total DSP Blocks                ; 3 / 84 ( 4 % )                              ;
; Total HSSI RX PCSs              ; 0                                           ;
; Total HSSI PMA RX Deserializers ; 0                                           ;
; Total HSSI TX PCSs              ; 0                                           ;
; Total HSSI PMA TX Serializers   ; 0                                           ;
; Total PLLs                      ; 0 / 5 ( 0 % )                               ;
; Total DLLs                      ; 0 / 4 ( 0 % )                               ;
+---------------------------------+---------------------------------------------+


+-----------------------------------------+
; Flow Settings                           ;
+-------------------+---------------------+
; Option            ; Setting             ;
+-------------------+---------------------+
; Start date & time ; 11/11/2016 17:29:38 ;
; Main task         ; Compilation         ;
; Revision Name     ; fpga_intro          ;
+-------------------+---------------------+


+---------------------------------------------------------------------------------------------------------------------------------------+
; Flow Non-Default Global Settings                                                                                                      ;
+-------------------------------------+---------------------------------------+---------------+------------------------+----------------+
; Assignment Name                     ; Value                                 ; Default Value ; Entity Name            ; Section Id     ;
+-------------------------------------+---------------------------------------+---------------+------------------------+----------------+
; COMPILER_SIGNATURE_ID               ; 203178705209364.147888177802916       ; --            ; --                     ; --             ;
; EDA_OUTPUT_DATA_FORMAT              ; Verilog Hdl                           ; --            ; --                     ; eda_simulation ;
; EDA_SIMULATION_TOOL                 ; ModelSim-Altera (Verilog)             ; <None>        ; --                     ; --             ;
; EDA_TIME_SCALE                      ; 1 ps                                  ; --            ; --                     ; eda_simulation ;
; MAX_CORE_JUNCTION_TEMP              ; 85                                    ; --            ; --                     ; --             ;
; MIN_CORE_JUNCTION_TEMP              ; 0                                     ; --            ; --                     ; --             ;
; PARTITION_COLOR                     ; 16764057                              ; --            ; DE0_Nano_SoC_top_level ; Top            ;
; PARTITION_FITTER_PRESERVATION_LEVEL ; PLACEMENT_AND_ROUTING                 ; --            ; DE0_Nano_SoC_top_level ; Top            ;
; PARTITION_NETLIST_TYPE              ; SOURCE                                ; --            ; DE0_Nano_SoC_top_level ; Top            ;
; POWER_BOARD_THERMAL_MODEL           ; None (CONSERVATIVE)                   ; --            ; --                     ; --             ;
; POWER_PRESET_COOLING_SOLUTION       ; 23 MM HEAT SINK WITH 200 LFPM AIRFLOW ; --            ; --                     ; --             ;
; PROJECT_OUTPUT_DIRECTORY            ; output_files                          ; --            ; --                     ; --             ;
; TOP_LEVEL_ENTITY                    ; DE0_Nano_SoC_top_level                ; fpga_intro    ; --                     ; --             ;
+-------------------------------------+---------------------------------------+---------------+------------------------+----------------+


+-------------------------------------------------------------------------------------------------------------------------------+
; Flow Elapsed Time                                                                                                             ;
+---------------------------+--------------+-------------------------+---------------------+------------------------------------+
; Module Name               ; Elapsed Time ; Average Processors Used ; Peak Virtual Memory ; Total CPU Time (on all processors) ;
+---------------------------+--------------+-------------------------+---------------------+------------------------------------+
; Analysis & Synthesis      ; 00:01:41     ; 1.0                     ; 1062 MB             ; 00:01:53                           ;
; Fitter                    ; 00:01:41     ; 1.0                     ; 1956 MB             ; 00:01:52                           ;
; Assembler                 ; 00:01:39     ; 1.0                     ; 946 MB              ; 00:00:07                           ;
; TimeQuest Timing Analyzer ; 00:00:34     ; 1.0                     ; 1218 MB             ; 00:00:21                           ;
; EDA Netlist Writer        ; 00:00:08     ; 1.0                     ; 871 MB              ; 00:00:05                           ;
; Total                     ; 00:05:43     ; --                      ; --                  ; 00:04:18                           ;
+---------------------------+--------------+-------------------------+---------------------+------------------------------------+


+----------------------------------------------------------------------------------------+
; Flow OS Summary                                                                        ;
+---------------------------+------------------+-----------+------------+----------------+
; Module Name               ; Machine Hostname ; OS Name   ; OS Version ; Processor type ;
+---------------------------+------------------+-----------+------------+----------------+
; Analysis & Synthesis      ; ICIN3PC45        ; Windows 7 ; 6.1        ; x86_64         ;
; Fitter                    ; ICIN3PC45        ; Windows 7 ; 6.1        ; x86_64         ;
; Assembler                 ; ICIN3PC45        ; Windows 7 ; 6.1        ; x86_64         ;
; TimeQuest Timing Analyzer ; ICIN3PC45        ; Windows 7 ; 6.1        ; x86_64         ;
; EDA Netlist Writer        ; ICIN3PC45        ; Windows 7 ; 6.1        ; x86_64         ;
+---------------------------+------------------+-----------+------------+----------------+


------------
; Flow Log ;
------------
quartus_map --read_settings_files=on --write_settings_files=off fpga_intro -c fpga_intro
quartus_fit --read_settings_files=off --write_settings_files=off fpga_intro -c fpga_intro
quartus_asm --read_settings_files=off --write_settings_files=off fpga_intro -c fpga_intro
quartus_sta fpga_intro -c fpga_intro
quartus_eda --read_settings_files=off --write_settings_files=off fpga_intro -c fpga_intro



