%!PS-Adobe-3.0
%%Creator: Model Technology ModelSim SE-64 vsim 10.1c Simulator 2012.07 Jul 28 2012
%%Title: wave.ps
%%CreationDate: 2016-11-17 11:10:15 PM
%%DocumentData: Clean8Bit
%%DocumentNeededResources: font Helvetica
%%Orientation: Landscape
%%PageOrder: ascend
%%Pages: 1
%%EndComments
%%BeginSetup
%%BeginFeature: *PageSize 8.2677165354330704x11.69291338582677
<< /PageSize [595.27559055118104 841.88976377952747]
/ImagingBBox null
>> setpagedevice
%%EndFeature
%%EndSetup
%%Page: 1 1
gsave
90 rotate 0.12 dup neg scale
% dump string table
/NP {newpath} def/SD {setdash} def/CL {setrgbcolor} def/GR {setgray} def
/SX {exch LEdge sub XScale mul MaxLabelWidth add LMargin add LEdge LabelWidth sub add exch} def/CSX {exch dup LabelWidth gt {exch SX} {exch} ifelse} def
/MT {SX moveto} def/LS {SX lineto stroke} def/LT {SX lineto} def/LFS {SX lineto fill stroke} def/RSS {rmoveto show stroke} def/ST {stroke} def/WT {CSX moveto dup stringwidth pop} def/TSW {pop 0 originOffset} def
/TSE {MaxLabelWidth LabelWidth sub LMargin add 0 rmoveto neg originOffset} def/TS {-2 div originOffset CSX} def
/MLW {stringwidth pop dup MaxLabelWidth gt {/MaxLabelWidth exch def}{pop} ifelse XS} def
/XS {/XScale LabelWidth LMargin sub MaxLabelWidth LEdge LabelWidth sub add sub REdge LEdge sub div 1 add def} def
/ARC {5 -2 roll SX 5 2 roll arc} def/LC {1 index stringwidth pop lt {pop ()} if} def
/SW {stringwidth pop} def
/ESTR {   dup 3 add string   /CurrentStr exch def   exch 0 2 index getinterval   0 1 3 index 1 sub {     dup     2 index exch get exch     CurrentStr exch 3 -1 roll put   } for   pop   dup 1 2 2 index add {     CurrentStr exch 46 put   } for   pop} def
/LC {   exch  dup dup /CurrentStr exch def   SW 2 index gt {     CurrentStr length     dup     {       2 div cvi       3 index       CurrentStr SW       sub       dup 0 lt {         1 index         4 -1 roll         exch sub         3 1 roll       }       {         dup 5 index gt {           1 index 4 -1 roll add 3 1 roll         }         {           exit         } ifelse       } ifelse       3 index 2 index ESTR       1 index 0 eq {         exit       } if       pop     } loop     pop pop pop pop pop     CurrentStr   }   {     CurrentStr   } ifelse} def
/XScale 1 def/MaxLabelWidth 0 def/LMargin 118 def/LEdge 438 def/REdge 6660 def/LabelWidth 401 def
/Helvetica findfont [66 0 0 -66 0 0] makefont setfont
/originOffset   currentfont   /FontBBox get 1 get   currentfont  /FontMatrix get 3 get   mul   currentfont   /FontType get   42 eq {     1000000 div   } {     neg   } ifelse def
(Clk) MLW
(nReset) MLW
(enable) MLW
(\(7\)) MLW
(\(6\)) MLW
(\(5\)) MLW
(\(4\)) MLW
(\(3\)) MLW
(\(2\)) MLW
(\(1\)) MLW
(\(0\)) MLW
% draw waveform shading
[] 0 SD
3 setlinewidth
0 setlinejoin
2 setlinecap
0 0 0 CL
439 139 MT 442 139 LS
442 211 MT 442 139 LS
443 211 MT 489 211 LS
489 211 MT 489 139 LS
490 139 MT 536 139 LS
536 211 MT 536 139 LS
537 211 MT 583 211 LS
583 211 MT 583 139 LS
584 139 MT 631 139 LS
631 211 MT 631 139 LS
632 211 MT 678 211 LS
678 211 MT 678 139 LS
679 139 MT 725 139 LS
725 211 MT 725 139 LS
726 211 MT 772 211 LS
772 211 MT 772 139 LS
773 139 MT 819 139 LS
819 211 MT 819 139 LS
820 211 MT 867 211 LS
867 211 MT 867 139 LS
868 139 MT 914 139 LS
914 211 MT 914 139 LS
915 211 MT 961 211 LS
961 211 MT 961 139 LS
962 139 MT 1008 139 LS
1008 211 MT 1008 139 LS
1009 211 MT 1055 211 LS
1055 211 MT 1055 139 LS
1056 139 MT 1103 139 LS
1103 211 MT 1103 139 LS
1104 211 MT 1150 211 LS
1150 211 MT 1150 139 LS
1151 139 MT 1197 139 LS
1197 211 MT 1197 139 LS
1198 211 MT 1244 211 LS
1244 211 MT 1244 139 LS
1245 139 MT 1291 139 LS
1291 211 MT 1291 139 LS
1292 211 MT 1339 211 LS
1339 211 MT 1339 139 LS
1340 139 MT 1386 139 LS
1386 211 MT 1386 139 LS
1387 211 MT 1433 211 LS
1433 211 MT 1433 139 LS
1434 139 MT 1480 139 LS
1480 211 MT 1480 139 LS
1481 211 MT 1527 211 LS
1527 211 MT 1527 139 LS
1528 139 MT 1575 139 LS
1575 211 MT 1575 139 LS
1576 211 MT 1622 211 LS
1622 211 MT 1622 139 LS
1623 139 MT 1669 139 LS
1669 211 MT 1669 139 LS
1670 211 MT 1716 211 LS
1716 211 MT 1716 139 LS
1717 139 MT 1763 139 LS
1763 211 MT 1763 139 LS
1764 211 MT 1811 211 LS
1811 211 MT 1811 139 LS
1812 139 MT 1858 139 LS
1858 211 MT 1858 139 LS
1859 211 MT 1905 211 LS
1905 211 MT 1905 139 LS
1906 139 MT 1952 139 LS
1952 211 MT 1952 139 LS
1953 211 MT 1999 211 LS
1999 211 MT 1999 139 LS
2000 139 MT 2047 139 LS
2047 211 MT 2047 139 LS
2048 211 MT 2094 211 LS
2094 211 MT 2094 139 LS
2095 139 MT 2141 139 LS
2141 211 MT 2141 139 LS
2142 211 MT 2188 211 LS
2188 211 MT 2188 139 LS
2189 139 MT 2235 139 LS
2235 211 MT 2235 139 LS
2236 211 MT 2283 211 LS
2283 211 MT 2283 139 LS
2284 139 MT 2330 139 LS
2330 211 MT 2330 139 LS
2331 211 MT 2377 211 LS
2377 211 MT 2377 139 LS
2378 139 MT 2424 139 LS
2424 211 MT 2424 139 LS
2425 211 MT 2471 211 LS
2471 211 MT 2471 139 LS
2472 139 MT 2519 139 LS
2519 211 MT 2519 139 LS
2520 211 MT 2566 211 LS
2566 211 MT 2566 139 LS
2567 139 MT 2613 139 LS
2613 211 MT 2613 139 LS
2614 211 MT 2660 211 LS
2660 211 MT 2660 139 LS
2661 139 MT 2707 139 LS
2707 211 MT 2707 139 LS
2708 211 MT 2755 211 LS
2755 211 MT 2755 139 LS
2756 139 MT 2802 139 LS
2802 211 MT 2802 139 LS
2803 211 MT 2849 211 LS
2849 211 MT 2849 139 LS
2850 139 MT 2896 139 LS
2896 211 MT 2896 139 LS
2897 211 MT 2943 211 LS
2943 211 MT 2943 139 LS
2944 139 MT 2991 139 LS
2991 211 MT 2991 139 LS
2992 211 MT 3038 211 LS
3038 211 MT 3038 139 LS
3039 139 MT 3085 139 LS
3085 211 MT 3085 139 LS
3086 211 MT 3132 211 LS
3132 211 MT 3132 139 LS
3133 139 MT 3179 139 LS
3179 211 MT 3179 139 LS
3180 211 MT 3227 211 LS
3227 211 MT 3227 139 LS
3228 139 MT 3274 139 LS
3274 211 MT 3274 139 LS
3275 211 MT 3321 211 LS
3321 211 MT 3321 139 LS
3322 139 MT 3368 139 LS
3368 211 MT 3368 139 LS
3369 211 MT 3416 211 LS
3416 211 MT 3416 139 LS
3417 139 MT 3463 139 LS
3463 211 MT 3463 139 LS
3464 211 MT 3510 211 LS
3510 211 MT 3510 139 LS
3511 139 MT 3557 139 LS
3557 211 MT 3557 139 LS
3558 211 MT 3604 211 LS
3604 211 MT 3604 139 LS
3605 139 MT 3652 139 LS
3652 211 MT 3652 139 LS
3653 211 MT 3699 211 LS
3699 211 MT 3699 139 LS
3700 139 MT 3746 139 LS
3746 211 MT 3746 139 LS
3747 211 MT 3793 211 LS
3793 211 MT 3793 139 LS
3794 139 MT 3840 139 LS
3840 211 MT 3840 139 LS
3841 211 MT 3888 211 LS
3888 211 MT 3888 139 LS
3889 139 MT 3935 139 LS
3935 211 MT 3935 139 LS
3936 211 MT 3982 211 LS
3982 211 MT 3982 139 LS
3983 139 MT 4029 139 LS
4029 211 MT 4029 139 LS
4030 211 MT 4076 211 LS
4076 211 MT 4076 139 LS
4077 139 MT 4124 139 LS
4124 211 MT 4124 139 LS
4125 211 MT 4171 211 LS
4171 211 MT 4171 139 LS
4172 139 MT 4218 139 LS
4218 211 MT 4218 139 LS
4219 211 MT 4265 211 LS
4265 211 MT 4265 139 LS
4266 139 MT 4312 139 LS
4312 211 MT 4312 139 LS
4313 211 MT 4360 211 LS
4360 211 MT 4360 139 LS
4361 139 MT 4407 139 LS
4407 211 MT 4407 139 LS
4408 211 MT 4454 211 LS
4454 211 MT 4454 139 LS
4455 139 MT 4501 139 LS
4501 211 MT 4501 139 LS
4502 211 MT 4548 211 LS
4548 211 MT 4548 139 LS
4549 139 MT 4596 139 LS
4596 211 MT 4596 139 LS
4597 211 MT 4643 211 LS
4643 211 MT 4643 139 LS
4644 139 MT 4690 139 LS
4690 211 MT 4690 139 LS
4691 211 MT 4737 211 LS
4737 211 MT 4737 139 LS
4738 139 MT 4784 139 LS
4784 211 MT 4784 139 LS
4785 211 MT 4832 211 LS
4832 211 MT 4832 139 LS
4833 139 MT 4879 139 LS
4879 211 MT 4879 139 LS
4880 211 MT 4926 211 LS
4926 211 MT 4926 139 LS
4927 139 MT 4973 139 LS
4973 211 MT 4973 139 LS
4974 211 MT 5020 211 LS
5020 211 MT 5020 139 LS
5021 139 MT 5068 139 LS
5068 211 MT 5068 139 LS
5069 211 MT 5115 211 LS
5115 211 MT 5115 139 LS
5116 139 MT 5162 139 LS
5162 211 MT 5162 139 LS
5163 211 MT 5209 211 LS
5209 211 MT 5209 139 LS
5210 139 MT 5256 139 LS
5256 211 MT 5256 139 LS
5257 211 MT 5304 211 LS
5304 211 MT 5304 139 LS
5305 139 MT 5351 139 LS
5351 211 MT 5351 139 LS
5352 211 MT 5398 211 LS
5398 211 MT 5398 139 LS
5399 139 MT 5445 139 LS
5445 211 MT 5445 139 LS
5446 211 MT 5492 211 LS
5492 211 MT 5492 139 LS
5493 139 MT 5540 139 LS
5540 211 MT 5540 139 LS
5541 211 MT 5587 211 LS
5587 211 MT 5587 139 LS
5588 139 MT 5634 139 LS
5634 211 MT 5634 139 LS
5635 211 MT 5681 211 LS
5681 211 MT 5681 139 LS
5682 139 MT 5728 139 LS
5728 211 MT 5728 139 LS
5729 211 MT 5776 211 LS
5776 211 MT 5776 139 LS
5777 139 MT 5823 139 LS
5823 211 MT 5823 139 LS
5824 211 MT 5870 211 LS
5870 211 MT 5870 139 LS
5871 139 MT 5917 139 LS
5917 211 MT 5917 139 LS
5918 211 MT 5964 211 LS
5964 211 MT 5964 139 LS
5965 139 MT 6012 139 LS
6012 211 MT 6012 139 LS
6013 211 MT 6059 211 LS
6059 211 MT 6059 139 LS
6060 139 MT 6106 139 LS
6106 211 MT 6106 139 LS
6107 211 MT 6153 211 LS
6153 211 MT 6153 139 LS
6154 139 MT 6200 139 LS
6200 211 MT 6200 139 LS
6201 211 MT 6248 211 LS
6248 211 MT 6248 139 LS
6249 139 MT 6295 139 LS
6295 211 MT 6295 139 LS
6296 211 MT 6342 211 LS
6342 211 MT 6342 139 LS
6343 139 MT 6389 139 LS
6389 211 MT 6389 139 LS
6390 211 MT 6436 211 LS
6436 211 MT 6436 139 LS
6437 139 MT 6484 139 LS
6484 211 MT 6484 139 LS
6485 211 MT 6531 211 LS
6531 211 MT 6531 139 LS
6532 139 MT 6578 139 LS
6578 211 MT 6578 139 LS
6579 211 MT 6625 211 LS
6625 211 MT 6625 139 LS
6626 139 MT 6672 139 LS
6672 211 MT 6672 139 LS
6673 211 MT 6720 211 LS
6720 211 MT 6720 139 LS
6721 139 MT 6767 139 LS
6767 211 MT 6767 139 LS
6768 211 MT 6814 211 LS
6814 211 MT 6814 139 LS
6815 139 MT 6861 139 LS
6861 211 MT 6861 139 LS
6862 211 MT 6895 211 LS
6895 211 MT 6895 211 LS
439 258 MT 6895 258 LS
6895 258 MT 6895 258 LS
(00000001) 23 LC 452 413 WT pop 0 originOffset 33 add RSS
438 377 MT 438 377 LT 482 377 LT 489 413 LT ST
438 449 MT 438 449 LT 482 449 LT 489 413 LT ST
(00000011) 66 LC 503 413 WT pop 0 originOffset 33 add RSS
489 413 MT 489 413 LT 496 377 LT 576 377 LT 583 413 LT ST
489 413 MT 489 413 LT 496 449 LT 576 449 LT 583 413 LT ST
(00000101) 67 LC 597 413 WT pop 0 originOffset 33 add RSS
583 413 MT 583 413 LT 590 377 LT 671 377 LT 678 413 LT ST
583 413 MT 583 413 LT 590 449 LT 671 449 LT 678 413 LT ST
(00000011) 66 LC 692 413 WT pop 0 originOffset 33 add RSS
678 413 MT 678 413 LT 685 377 LT 765 377 LT 772 413 LT ST
678 413 MT 678 413 LT 685 449 LT 765 449 LT 772 413 LT ST
(00001001) 67 LC 786 413 WT pop 0 originOffset 33 add RSS
772 413 MT 772 413 LT 779 377 LT 860 377 LT 867 413 LT ST
772 413 MT 772 413 LT 779 449 LT 860 449 LT 867 413 LT ST
(00000011) 66 LC 881 413 WT pop 0 originOffset 33 add RSS
867 413 MT 867 413 LT 874 377 LT 954 377 LT 961 413 LT ST
867 413 MT 867 413 LT 874 449 LT 954 449 LT 961 413 LT ST
(00000101) 66 LC 975 413 WT pop 0 originOffset 33 add RSS
961 413 MT 961 413 LT 968 377 LT 1048 377 LT 1055 413 LT ST
961 413 MT 961 413 LT 968 449 LT 1048 449 LT 1055 413 LT ST
(00000011) 67 LC 1069 413 WT pop 0 originOffset 33 add RSS
1055 413 MT 1055 413 LT 1062 377 LT 1143 377 LT 1150 413 LT ST
1055 413 MT 1055 413 LT 1062 449 LT 1143 449 LT 1150 413 LT ST
(00010001) 66 LC 1164 413 WT pop 0 originOffset 33 add RSS
1150 413 MT 1150 413 LT 1157 377 LT 1237 377 LT 1244 413 LT ST
1150 413 MT 1150 413 LT 1157 449 LT 1237 449 LT 1244 413 LT ST
(00000011) 67 LC 1258 413 WT pop 0 originOffset 33 add RSS
1244 413 MT 1244 413 LT 1251 377 LT 1332 377 LT 1339 413 LT ST
1244 413 MT 1244 413 LT 1251 449 LT 1332 449 LT 1339 413 LT ST
(00000101) 66 LC 1353 413 WT pop 0 originOffset 33 add RSS
1339 413 MT 1339 413 LT 1346 377 LT 1426 377 LT 1433 413 LT ST
1339 413 MT 1339 413 LT 1346 449 LT 1426 449 LT 1433 413 LT ST
(00000011) 66 LC 1447 413 WT pop 0 originOffset 33 add RSS
1433 413 MT 1433 413 LT 1440 377 LT 1520 377 LT 1527 413 LT ST
1433 413 MT 1433 413 LT 1440 449 LT 1520 449 LT 1527 413 LT ST
(00001001) 67 LC 1541 413 WT pop 0 originOffset 33 add RSS
1527 413 MT 1527 413 LT 1534 377 LT 1615 377 LT 1622 413 LT ST
1527 413 MT 1527 413 LT 1534 449 LT 1615 449 LT 1622 413 LT ST
(00000011) 66 LC 1636 413 WT pop 0 originOffset 33 add RSS
1622 413 MT 1622 413 LT 1629 377 LT 1709 377 LT 1716 413 LT ST
1622 413 MT 1622 413 LT 1629 449 LT 1709 449 LT 1716 413 LT ST
(00000101) 67 LC 1730 413 WT pop 0 originOffset 33 add RSS
1716 413 MT 1716 413 LT 1723 377 LT 1804 377 LT 1811 413 LT ST
1716 413 MT 1716 413 LT 1723 449 LT 1804 449 LT 1811 413 LT ST
(00000011) 66 LC 1825 413 WT pop 0 originOffset 33 add RSS
1811 413 MT 1811 413 LT 1818 377 LT 1898 377 LT 1905 413 LT ST
1811 413 MT 1811 413 LT 1818 449 LT 1898 449 LT 1905 413 LT ST
(00100001) 66 LC 1919 413 WT pop 0 originOffset 33 add RSS
1905 413 MT 1905 413 LT 1912 377 LT 1992 377 LT 1999 413 LT ST
1905 413 MT 1905 413 LT 1912 449 LT 1992 449 LT 1999 413 LT ST
(00000011) 67 LC 2013 413 WT pop 0 originOffset 33 add RSS
1999 413 MT 1999 413 LT 2006 377 LT 2087 377 LT 2094 413 LT ST
1999 413 MT 1999 413 LT 2006 449 LT 2087 449 LT 2094 413 LT ST
(00000101) 66 LC 2108 413 WT pop 0 originOffset 33 add RSS
2094 413 MT 2094 413 LT 2101 377 LT 2181 377 LT 2188 413 LT ST
2094 413 MT 2094 413 LT 2101 449 LT 2181 449 LT 2188 413 LT ST
(00000011) 67 LC 2202 413 WT pop 0 originOffset 33 add RSS
2188 413 MT 2188 413 LT 2195 377 LT 2276 377 LT 2283 413 LT ST
2188 413 MT 2188 413 LT 2195 449 LT 2276 449 LT 2283 413 LT ST
(00001001) 66 LC 2297 413 WT pop 0 originOffset 33 add RSS
2283 413 MT 2283 413 LT 2290 377 LT 2370 377 LT 2377 413 LT ST
2283 413 MT 2283 413 LT 2290 449 LT 2370 449 LT 2377 413 LT ST
(00000011) 66 LC 2391 413 WT pop 0 originOffset 33 add RSS
2377 413 MT 2377 413 LT 2384 377 LT 2464 377 LT 2471 413 LT ST
2377 413 MT 2377 413 LT 2384 449 LT 2464 449 LT 2471 413 LT ST
(00000101) 67 LC 2485 413 WT pop 0 originOffset 33 add RSS
2471 413 MT 2471 413 LT 2478 377 LT 2559 377 LT 2566 413 LT ST
2471 413 MT 2471 413 LT 2478 449 LT 2559 449 LT 2566 413 LT ST
(00000011) 66 LC 2580 413 WT pop 0 originOffset 33 add RSS
2566 413 MT 2566 413 LT 2573 377 LT 2653 377 LT 2660 413 LT ST
2566 413 MT 2566 413 LT 2573 449 LT 2653 449 LT 2660 413 LT ST
(00010001) 67 LC 2674 413 WT pop 0 originOffset 33 add RSS
2660 413 MT 2660 413 LT 2667 377 LT 2748 377 LT 2755 413 LT ST
2660 413 MT 2660 413 LT 2667 449 LT 2748 449 LT 2755 413 LT ST
(00000011) 66 LC 2769 413 WT pop 0 originOffset 33 add RSS
2755 413 MT 2755 413 LT 2762 377 LT 2842 377 LT 2849 413 LT ST
2755 413 MT 2755 413 LT 2762 449 LT 2842 449 LT 2849 413 LT ST
(00000101) 66 LC 2863 413 WT pop 0 originOffset 33 add RSS
2849 413 MT 2849 413 LT 2856 377 LT 2936 377 LT 2943 413 LT ST
2849 413 MT 2849 413 LT 2856 449 LT 2936 449 LT 2943 413 LT ST
(00000011) 67 LC 2957 413 WT pop 0 originOffset 33 add RSS
2943 413 MT 2943 413 LT 2950 377 LT 3031 377 LT 3038 413 LT ST
2943 413 MT 2943 413 LT 2950 449 LT 3031 449 LT 3038 413 LT ST
(00001001) 66 LC 3052 413 WT pop 0 originOffset 33 add RSS
3038 413 MT 3038 413 LT 3045 377 LT 3125 377 LT 3132 413 LT ST
3038 413 MT 3038 413 LT 3045 449 LT 3125 449 LT 3132 413 LT ST
(00000011) 67 LC 3146 413 WT pop 0 originOffset 33 add RSS
3132 413 MT 3132 413 LT 3139 377 LT 3220 377 LT 3227 413 LT ST
3132 413 MT 3132 413 LT 3139 449 LT 3220 449 LT 3227 413 LT ST
(00000101) 66 LC 3241 413 WT pop 0 originOffset 33 add RSS
3227 413 MT 3227 413 LT 3234 377 LT 3314 377 LT 3321 413 LT ST
3227 413 MT 3227 413 LT 3234 449 LT 3314 449 LT 3321 413 LT ST
(00000011) 67 LC 3335 413 WT pop 0 originOffset 33 add RSS
3321 413 MT 3321 413 LT 3328 377 LT 3409 377 LT 3416 413 LT ST
3321 413 MT 3321 413 LT 3328 449 LT 3409 449 LT 3416 413 LT ST
(01000001) 66 LC 3430 413 WT pop 0 originOffset 33 add RSS
3416 413 MT 3416 413 LT 3423 377 LT 3503 377 LT 3510 413 LT ST
3416 413 MT 3416 413 LT 3423 449 LT 3503 449 LT 3510 413 LT ST
(00000011) 66 LC 3524 413 WT pop 0 originOffset 33 add RSS
3510 413 MT 3510 413 LT 3517 377 LT 3597 377 LT 3604 413 LT ST
3510 413 MT 3510 413 LT 3517 449 LT 3597 449 LT 3604 413 LT ST
(00000101) 67 LC 3618 413 WT pop 0 originOffset 33 add RSS
3604 413 MT 3604 413 LT 3611 377 LT 3692 377 LT 3699 413 LT ST
3604 413 MT 3604 413 LT 3611 449 LT 3692 449 LT 3699 413 LT ST
(00000011) 66 LC 3713 413 WT pop 0 originOffset 33 add RSS
3699 413 MT 3699 413 LT 3706 377 LT 3786 377 LT 3793 413 LT ST
3699 413 MT 3699 413 LT 3706 449 LT 3786 449 LT 3793 413 LT ST
(00001001) 67 LC 3807 413 WT pop 0 originOffset 33 add RSS
3793 413 MT 3793 413 LT 3800 377 LT 3881 377 LT 3888 413 LT ST
3793 413 MT 3793 413 LT 3800 449 LT 3881 449 LT 3888 413 LT ST
(00000011) 66 LC 3902 413 WT pop 0 originOffset 33 add RSS
3888 413 MT 3888 413 LT 3895 377 LT 3975 377 LT 3982 413 LT ST
3888 413 MT 3888 413 LT 3895 449 LT 3975 449 LT 3982 413 LT ST
(00000101) 66 LC 3996 413 WT pop 0 originOffset 33 add RSS
3982 413 MT 3982 413 LT 3989 377 LT 4069 377 LT 4076 413 LT ST
3982 413 MT 3982 413 LT 3989 449 LT 4069 449 LT 4076 413 LT ST
(00000011) 67 LC 4090 413 WT pop 0 originOffset 33 add RSS
4076 413 MT 4076 413 LT 4083 377 LT 4164 377 LT 4171 413 LT ST
4076 413 MT 4076 413 LT 4083 449 LT 4164 449 LT 4171 413 LT ST
(00010001) 66 LC 4185 413 WT pop 0 originOffset 33 add RSS
4171 413 MT 4171 413 LT 4178 377 LT 4258 377 LT 4265 413 LT ST
4171 413 MT 4171 413 LT 4178 449 LT 4258 449 LT 4265 413 LT ST
(00000011) 67 LC 4279 413 WT pop 0 originOffset 33 add RSS
4265 413 MT 4265 413 LT 4272 377 LT 4353 377 LT 4360 413 LT ST
4265 413 MT 4265 413 LT 4272 449 LT 4353 449 LT 4360 413 LT ST
(00000101) 66 LC 4374 413 WT pop 0 originOffset 33 add RSS
4360 413 MT 4360 413 LT 4367 377 LT 4447 377 LT 4454 413 LT ST
4360 413 MT 4360 413 LT 4367 449 LT 4447 449 LT 4454 413 LT ST
(00000011) 66 LC 4468 413 WT pop 0 originOffset 33 add RSS
4454 413 MT 4454 413 LT 4461 377 LT 4541 377 LT 4548 413 LT ST
4454 413 MT 4454 413 LT 4461 449 LT 4541 449 LT 4548 413 LT ST
(00001001) 67 LC 4562 413 WT pop 0 originOffset 33 add RSS
4548 413 MT 4548 413 LT 4555 377 LT 4636 377 LT 4643 413 LT ST
4548 413 MT 4548 413 LT 4555 449 LT 4636 449 LT 4643 413 LT ST
(00000011) 66 LC 4657 413 WT pop 0 originOffset 33 add RSS
4643 413 MT 4643 413 LT 4650 377 LT 4730 377 LT 4737 413 LT ST
4643 413 MT 4643 413 LT 4650 449 LT 4730 449 LT 4737 413 LT ST
(00000101) 67 LC 4751 413 WT pop 0 originOffset 33 add RSS
4737 413 MT 4737 413 LT 4744 377 LT 4825 377 LT 4832 413 LT ST
4737 413 MT 4737 413 LT 4744 449 LT 4825 449 LT 4832 413 LT ST
(00000011) 66 LC 4846 413 WT pop 0 originOffset 33 add RSS
4832 413 MT 4832 413 LT 4839 377 LT 4919 377 LT 4926 413 LT ST
4832 413 MT 4832 413 LT 4839 449 LT 4919 449 LT 4926 413 LT ST
(00100001) 66 LC 4940 413 WT pop 0 originOffset 33 add RSS
4926 413 MT 4926 413 LT 4933 377 LT 5013 377 LT 5020 413 LT ST
4926 413 MT 4926 413 LT 4933 449 LT 5013 449 LT 5020 413 LT ST
(00000011) 67 LC 5034 413 WT pop 0 originOffset 33 add RSS
5020 413 MT 5020 413 LT 5027 377 LT 5108 377 LT 5115 413 LT ST
5020 413 MT 5020 413 LT 5027 449 LT 5108 449 LT 5115 413 LT ST
(00000101) 66 LC 5129 413 WT pop 0 originOffset 33 add RSS
5115 413 MT 5115 413 LT 5122 377 LT 5202 377 LT 5209 413 LT ST
5115 413 MT 5115 413 LT 5122 449 LT 5202 449 LT 5209 413 LT ST
(00000011) 67 LC 5223 413 WT pop 0 originOffset 33 add RSS
5209 413 MT 5209 413 LT 5216 377 LT 5297 377 LT 5304 413 LT ST
5209 413 MT 5209 413 LT 5216 449 LT 5297 449 LT 5304 413 LT ST
(00001001) 66 LC 5318 413 WT pop 0 originOffset 33 add RSS
5304 413 MT 5304 413 LT 5311 377 LT 5391 377 LT 5398 413 LT ST
5304 413 MT 5304 413 LT 5311 449 LT 5391 449 LT 5398 413 LT ST
(00000011) 66 LC 5412 413 WT pop 0 originOffset 33 add RSS
5398 413 MT 5398 413 LT 5405 377 LT 5485 377 LT 5492 413 LT ST
5398 413 MT 5398 413 LT 5405 449 LT 5485 449 LT 5492 413 LT ST
(00000101) 67 LC 5506 413 WT pop 0 originOffset 33 add RSS
5492 413 MT 5492 413 LT 5499 377 LT 5580 377 LT 5587 413 LT ST
5492 413 MT 5492 413 LT 5499 449 LT 5580 449 LT 5587 413 LT ST
(00000011) 66 LC 5601 413 WT pop 0 originOffset 33 add RSS
5587 413 MT 5587 413 LT 5594 377 LT 5674 377 LT 5681 413 LT ST
5587 413 MT 5587 413 LT 5594 449 LT 5674 449 LT 5681 413 LT ST
(00010001) 67 LC 5695 413 WT pop 0 originOffset 33 add RSS
5681 413 MT 5681 413 LT 5688 377 LT 5769 377 LT 5776 413 LT ST
5681 413 MT 5681 413 LT 5688 449 LT 5769 449 LT 5776 413 LT ST
(00000011) 66 LC 5790 413 WT pop 0 originOffset 33 add RSS
5776 413 MT 5776 413 LT 5783 377 LT 5863 377 LT 5870 413 LT ST
5776 413 MT 5776 413 LT 5783 449 LT 5863 449 LT 5870 413 LT ST
(00000101) 66 LC 5884 413 WT pop 0 originOffset 33 add RSS
5870 413 MT 5870 413 LT 5877 377 LT 5957 377 LT 5964 413 LT ST
5870 413 MT 5870 413 LT 5877 449 LT 5957 449 LT 5964 413 LT ST
(00000011) 67 LC 5978 413 WT pop 0 originOffset 33 add RSS
5964 413 MT 5964 413 LT 5971 377 LT 6052 377 LT 6059 413 LT ST
5964 413 MT 5964 413 LT 5971 449 LT 6052 449 LT 6059 413 LT ST
(00001001) 66 LC 6073 413 WT pop 0 originOffset 33 add RSS
6059 413 MT 6059 413 LT 6066 377 LT 6146 377 LT 6153 413 LT ST
6059 413 MT 6059 413 LT 6066 449 LT 6146 449 LT 6153 413 LT ST
(00000011) 67 LC 6167 413 WT pop 0 originOffset 33 add RSS
6153 413 MT 6153 413 LT 6160 377 LT 6241 377 LT 6248 413 LT ST
6153 413 MT 6153 413 LT 6160 449 LT 6241 449 LT 6248 413 LT ST
(00000101) 66 LC 6262 413 WT pop 0 originOffset 33 add RSS
6248 413 MT 6248 413 LT 6255 377 LT 6335 377 LT 6342 413 LT ST
6248 413 MT 6248 413 LT 6255 449 LT 6335 449 LT 6342 413 LT ST
(00000011) 66 LC 6356 413 WT pop 0 originOffset 33 add RSS
6342 413 MT 6342 413 LT 6349 377 LT 6429 377 LT 6436 413 LT ST
6342 413 MT 6342 413 LT 6349 449 LT 6429 449 LT 6436 413 LT ST
(10000001) 67 LC 6450 413 WT pop 0 originOffset 33 add RSS
6436 413 MT 6436 413 LT 6443 377 LT 6524 377 LT 6531 413 LT ST
6436 413 MT 6436 413 LT 6443 449 LT 6524 449 LT 6531 413 LT ST
(00000011) 66 LC 6545 413 WT pop 0 originOffset 33 add RSS
6531 413 MT 6531 413 LT 6538 377 LT 6618 377 LT 6625 413 LT ST
6531 413 MT 6531 413 LT 6538 449 LT 6618 449 LT 6625 413 LT ST
(00000101) 67 LC 6639 413 WT pop 0 originOffset 33 add RSS
6625 413 MT 6625 413 LT 6632 377 LT 6713 377 LT 6720 413 LT ST
6625 413 MT 6625 413 LT 6632 449 LT 6713 449 LT 6720 413 LT ST
(00000011) 66 LC 6734 413 WT pop 0 originOffset 33 add RSS
6720 413 MT 6720 413 LT 6727 377 LT 6807 377 LT 6814 413 LT ST
6720 413 MT 6720 413 LT 6727 449 LT 6807 449 LT 6814 413 LT ST
(00001001) 53 LC 6828 413 WT pop 0 originOffset 33 add RSS
6814 413 MT 6814 413 LT 6821 377 LT 6895 377 LT ST
6814 413 MT 6814 413 LT 6821 449 LT 6895 449 LT ST
439 568 MT 6436 568 LS
6436 568 MT 6436 496 LS
6437 496 MT 6531 496 LS
6531 568 MT 6531 496 LS
6532 568 MT 6895 568 LS
6895 568 MT 6895 568 LS
439 687 MT 3416 687 LS
3416 687 MT 3416 615 LS
3417 615 MT 3510 615 LS
3510 687 MT 3510 615 LS
3511 687 MT 6895 687 LS
6895 687 MT 6895 687 LS
439 806 MT 1905 806 LS
1905 806 MT 1905 734 LS
1906 734 MT 1999 734 LS
1999 806 MT 1999 734 LS
2000 806 MT 4926 806 LS
4926 806 MT 4926 734 LS
4927 734 MT 5020 734 LS
5020 806 MT 5020 734 LS
5021 806 MT 6895 806 LS
6895 806 MT 6895 806 LS
439 925 MT 1150 925 LS
1150 925 MT 1150 853 LS
1151 853 MT 1244 853 LS
1244 925 MT 1244 853 LS
1245 925 MT 2660 925 LS
2660 925 MT 2660 853 LS
2661 853 MT 2755 853 LS
2755 925 MT 2755 853 LS
2756 925 MT 4171 925 LS
4171 925 MT 4171 853 LS
4172 853 MT 4265 853 LS
4265 925 MT 4265 853 LS
4266 925 MT 5681 925 LS
5681 925 MT 5681 853 LS
5682 853 MT 5776 853 LS
5776 925 MT 5776 853 LS
5777 925 MT 6895 925 LS
6895 925 MT 6895 925 LS
439 1044 MT 772 1044 LS
772 1044 MT 772 972 LS
773 972 MT 867 972 LS
867 1044 MT 867 972 LS
868 1044 MT 1527 1044 LS
1527 1044 MT 1527 972 LS
1528 972 MT 1622 972 LS
1622 1044 MT 1622 972 LS
1623 1044 MT 2283 1044 LS
2283 1044 MT 2283 972 LS
2284 972 MT 2377 972 LS
2377 1044 MT 2377 972 LS
2378 1044 MT 3038 1044 LS
3038 1044 MT 3038 972 LS
3039 972 MT 3132 972 LS
3132 1044 MT 3132 972 LS
3133 1044 MT 3793 1044 LS
3793 1044 MT 3793 972 LS
3794 972 MT 3888 972 LS
3888 1044 MT 3888 972 LS
3889 1044 MT 4548 1044 LS
4548 1044 MT 4548 972 LS
4549 972 MT 4643 972 LS
4643 1044 MT 4643 972 LS
4644 1044 MT 5304 1044 LS
5304 1044 MT 5304 972 LS
5305 972 MT 5398 972 LS
5398 1044 MT 5398 972 LS
5399 1044 MT 6059 1044 LS
6059 1044 MT 6059 972 LS
6060 972 MT 6153 972 LS
6153 1044 MT 6153 972 LS
6154 1044 MT 6814 1044 LS
6814 1044 MT 6814 972 LS
6815 972 MT 6895 972 LS
6895 972 MT 6895 972 LS
439 1163 MT 583 1163 LS
583 1163 MT 583 1091 LS
584 1091 MT 678 1091 LS
678 1163 MT 678 1091 LS
679 1163 MT 961 1163 LS
961 1163 MT 961 1091 LS
962 1091 MT 1055 1091 LS
1055 1163 MT 1055 1091 LS
1056 1163 MT 1339 1163 LS
1339 1163 MT 1339 1091 LS
1340 1091 MT 1433 1091 LS
1433 1163 MT 1433 1091 LS
1434 1163 MT 1716 1163 LS
1716 1163 MT 1716 1091 LS
1717 1091 MT 1811 1091 LS
1811 1163 MT 1811 1091 LS
1812 1163 MT 2094 1163 LS
2094 1163 MT 2094 1091 LS
2095 1091 MT 2188 1091 LS
2188 1163 MT 2188 1091 LS
2189 1163 MT 2471 1163 LS
2471 1163 MT 2471 1091 LS
2472 1091 MT 2566 1091 LS
2566 1163 MT 2566 1091 LS
2567 1163 MT 2849 1163 LS
2849 1163 MT 2849 1091 LS
2850 1091 MT 2943 1091 LS
2943 1163 MT 2943 1091 LS
2944 1163 MT 3227 1163 LS
3227 1163 MT 3227 1091 LS
3228 1091 MT 3321 1091 LS
3321 1163 MT 3321 1091 LS
3322 1163 MT 3604 1163 LS
3604 1163 MT 3604 1091 LS
3605 1091 MT 3699 1091 LS
3699 1163 MT 3699 1091 LS
3700 1163 MT 3982 1163 LS
3982 1163 MT 3982 1091 LS
3983 1091 MT 4076 1091 LS
4076 1163 MT 4076 1091 LS
4077 1163 MT 4360 1163 LS
4360 1163 MT 4360 1091 LS
4361 1091 MT 4454 1091 LS
4454 1163 MT 4454 1091 LS
4455 1163 MT 4737 1163 LS
4737 1163 MT 4737 1091 LS
4738 1091 MT 4832 1091 LS
4832 1163 MT 4832 1091 LS
4833 1163 MT 5115 1163 LS
5115 1163 MT 5115 1091 LS
5116 1091 MT 5209 1091 LS
5209 1163 MT 5209 1091 LS
5210 1163 MT 5492 1163 LS
5492 1163 MT 5492 1091 LS
5493 1091 MT 5587 1091 LS
5587 1163 MT 5587 1091 LS
5588 1163 MT 5870 1163 LS
5870 1163 MT 5870 1091 LS
5871 1091 MT 5964 1091 LS
5964 1163 MT 5964 1091 LS
5965 1163 MT 6248 1163 LS
6248 1163 MT 6248 1091 LS
6249 1091 MT 6342 1091 LS
6342 1163 MT 6342 1091 LS
6343 1163 MT 6625 1163 LS
6625 1163 MT 6625 1091 LS
6626 1091 MT 6720 1091 LS
6720 1163 MT 6720 1091 LS
6721 1163 MT 6895 1163 LS
6895 1163 MT 6895 1163 LS
439 1282 MT 489 1282 LS
489 1282 MT 489 1210 LS
490 1210 MT 583 1210 LS
583 1282 MT 583 1210 LS
584 1282 MT 678 1282 LS
678 1282 MT 678 1210 LS
679 1210 MT 772 1210 LS
772 1282 MT 772 1210 LS
773 1282 MT 867 1282 LS
867 1282 MT 867 1210 LS
868 1210 MT 961 1210 LS
961 1282 MT 961 1210 LS
962 1282 MT 1055 1282 LS
1055 1282 MT 1055 1210 LS
1056 1210 MT 1150 1210 LS
1150 1282 MT 1150 1210 LS
1151 1282 MT 1244 1282 LS
1244 1282 MT 1244 1210 LS
1245 1210 MT 1339 1210 LS
1339 1282 MT 1339 1210 LS
1340 1282 MT 1433 1282 LS
1433 1282 MT 1433 1210 LS
1434 1210 MT 1527 1210 LS
1527 1282 MT 1527 1210 LS
1528 1282 MT 1622 1282 LS
1622 1282 MT 1622 1210 LS
1623 1210 MT 1716 1210 LS
1716 1282 MT 1716 1210 LS
1717 1282 MT 1811 1282 LS
1811 1282 MT 1811 1210 LS
1812 1210 MT 1905 1210 LS
1905 1282 MT 1905 1210 LS
1906 1282 MT 1999 1282 LS
1999 1282 MT 1999 1210 LS
2000 1210 MT 2094 1210 LS
2094 1282 MT 2094 1210 LS
2095 1282 MT 2188 1282 LS
2188 1282 MT 2188 1210 LS
2189 1210 MT 2283 1210 LS
2283 1282 MT 2283 1210 LS
2284 1282 MT 2377 1282 LS
2377 1282 MT 2377 1210 LS
2378 1210 MT 2471 1210 LS
2471 1282 MT 2471 1210 LS
2472 1282 MT 2566 1282 LS
2566 1282 MT 2566 1210 LS
2567 1210 MT 2660 1210 LS
2660 1282 MT 2660 1210 LS
2661 1282 MT 2755 1282 LS
2755 1282 MT 2755 1210 LS
2756 1210 MT 2849 1210 LS
2849 1282 MT 2849 1210 LS
2850 1282 MT 2943 1282 LS
2943 1282 MT 2943 1210 LS
2944 1210 MT 3038 1210 LS
3038 1282 MT 3038 1210 LS
3039 1282 MT 3132 1282 LS
3132 1282 MT 3132 1210 LS
3133 1210 MT 3227 1210 LS
3227 1282 MT 3227 1210 LS
3228 1282 MT 3321 1282 LS
3321 1282 MT 3321 1210 LS
3322 1210 MT 3416 1210 LS
3416 1282 MT 3416 1210 LS
3417 1282 MT 3510 1282 LS
3510 1282 MT 3510 1210 LS
3511 1210 MT 3604 1210 LS
3604 1282 MT 3604 1210 LS
3605 1282 MT 3699 1282 LS
3699 1282 MT 3699 1210 LS
3700 1210 MT 3793 1210 LS
3793 1282 MT 3793 1210 LS
3794 1282 MT 3888 1282 LS
3888 1282 MT 3888 1210 LS
3889 1210 MT 3982 1210 LS
3982 1282 MT 3982 1210 LS
3983 1282 MT 4076 1282 LS
4076 1282 MT 4076 1210 LS
4077 1210 MT 4171 1210 LS
4171 1282 MT 4171 1210 LS
4172 1282 MT 4265 1282 LS
4265 1282 MT 4265 1210 LS
4266 1210 MT 4360 1210 LS
4360 1282 MT 4360 1210 LS
4361 1282 MT 4454 1282 LS
4454 1282 MT 4454 1210 LS
4455 1210 MT 4548 1210 LS
4548 1282 MT 4548 1210 LS
4549 1282 MT 4643 1282 LS
4643 1282 MT 4643 1210 LS
4644 1210 MT 4737 1210 LS
4737 1282 MT 4737 1210 LS
4738 1282 MT 4832 1282 LS
4832 1282 MT 4832 1210 LS
4833 1210 MT 4926 1210 LS
4926 1282 MT 4926 1210 LS
4927 1282 MT 5020 1282 LS
5020 1282 MT 5020 1210 LS
5021 1210 MT 5115 1210 LS
5115 1282 MT 5115 1210 LS
5116 1282 MT 5209 1282 LS
5209 1282 MT 5209 1210 LS
5210 1210 MT 5304 1210 LS
5304 1282 MT 5304 1210 LS
5305 1282 MT 5398 1282 LS
5398 1282 MT 5398 1210 LS
5399 1210 MT 5492 1210 LS
5492 1282 MT 5492 1210 LS
5493 1282 MT 5587 1282 LS
5587 1282 MT 5587 1210 LS
5588 1210 MT 5681 1210 LS
5681 1282 MT 5681 1210 LS
5682 1282 MT 5776 1282 LS
5776 1282 MT 5776 1210 LS
5777 1210 MT 5870 1210 LS
5870 1282 MT 5870 1210 LS
5871 1282 MT 5964 1282 LS
5964 1282 MT 5964 1210 LS
5965 1210 MT 6059 1210 LS
6059 1282 MT 6059 1210 LS
6060 1282 MT 6153 1282 LS
6153 1282 MT 6153 1210 LS
6154 1210 MT 6248 1210 LS
6248 1282 MT 6248 1210 LS
6249 1282 MT 6342 1282 LS
6342 1282 MT 6342 1210 LS
6343 1210 MT 6436 1210 LS
6436 1282 MT 6436 1210 LS
6437 1282 MT 6531 1282 LS
6531 1282 MT 6531 1210 LS
6532 1210 MT 6625 1210 LS
6625 1282 MT 6625 1210 LS
6626 1282 MT 6720 1282 LS
6720 1282 MT 6720 1210 LS
6721 1210 MT 6814 1210 LS
6814 1282 MT 6814 1210 LS
6815 1282 MT 6895 1282 LS
6895 1282 MT 6895 1282 LS
439 1329 MT 6895 1329 LS
6895 1329 MT 6895 1329 LS
% draw timeline
442 4572 MT 442 4636 LS
631 4599 MT 631 4636 LS
820 4599 MT 820 4636 LS
1008 4599 MT 1008 4636 LS
1197 4599 MT 1197 4636 LS
1386 4572 MT 1386 4636 LS
(2800 ns) 9999 LC 1386 4707 WT TS RSS
1575 4599 MT 1575 4636 LS
1764 4599 MT 1764 4636 LS
1952 4599 MT 1952 4636 LS
2141 4599 MT 2141 4636 LS
2330 4572 MT 2330 4636 LS
2519 4599 MT 2519 4636 LS
2708 4599 MT 2708 4636 LS
2896 4599 MT 2896 4636 LS
3085 4599 MT 3085 4636 LS
3274 4572 MT 3274 4636 LS
(3200 ns) 9999 LC 3274 4707 WT TS RSS
3463 4599 MT 3463 4636 LS
3652 4599 MT 3652 4636 LS
3840 4599 MT 3840 4636 LS
4029 4599 MT 4029 4636 LS
4218 4572 MT 4218 4636 LS
4407 4599 MT 4407 4636 LS
4596 4599 MT 4596 4636 LS
4784 4599 MT 4784 4636 LS
4973 4599 MT 4973 4636 LS
5162 4572 MT 5162 4636 LS
(3600 ns) 9999 LC 5162 4707 WT TS RSS
5351 4599 MT 5351 4636 LS
5540 4599 MT 5540 4636 LS
5728 4599 MT 5728 4636 LS
5917 4599 MT 5917 4636 LS
6106 4572 MT 6106 4636 LS
6295 4599 MT 6295 4636 LS
6484 4599 MT 6484 4636 LS
6672 4599 MT 6672 4636 LS
6861 4599 MT 6861 4636 LS
% draw grid
442 118 MT 442 4572 LS
1386 118 MT 1386 4572 LS
2330 118 MT 2330 4572 LS
3274 118 MT 3274 4572 LS
4218 118 MT 4218 4572 LS
5162 118 MT 5162 4572 LS
6106 118 MT 6106 4572 LS
% draw waveforms
(Clk) 9999 LC 401 210 WT TSE RSS
435 118 MT 449 118 LS
1379 118 MT 1393 118 LS
2323 118 MT 2337 118 LS
3267 118 MT 3281 118 LS
4211 118 MT 4225 118 LS
5155 118 MT 5169 118 LS
6099 118 MT 6113 118 LS
439 139 MT 442 139 LS
442 211 MT 442 139 LS
443 211 MT 489 211 LS
489 211 MT 489 139 LS
490 139 MT 536 139 LS
536 211 MT 536 139 LS
537 211 MT 583 211 LS
583 211 MT 583 139 LS
584 139 MT 631 139 LS
631 211 MT 631 139 LS
632 211 MT 678 211 LS
678 211 MT 678 139 LS
679 139 MT 725 139 LS
725 211 MT 725 139 LS
726 211 MT 772 211 LS
772 211 MT 772 139 LS
773 139 MT 819 139 LS
819 211 MT 819 139 LS
820 211 MT 867 211 LS
867 211 MT 867 139 LS
868 139 MT 914 139 LS
914 211 MT 914 139 LS
915 211 MT 961 211 LS
961 211 MT 961 139 LS
962 139 MT 1008 139 LS
1008 211 MT 1008 139 LS
1009 211 MT 1055 211 LS
1055 211 MT 1055 139 LS
1056 139 MT 1103 139 LS
1103 211 MT 1103 139 LS
1104 211 MT 1150 211 LS
1150 211 MT 1150 139 LS
1151 139 MT 1197 139 LS
1197 211 MT 1197 139 LS
1198 211 MT 1244 211 LS
1244 211 MT 1244 139 LS
1245 139 MT 1291 139 LS
1291 211 MT 1291 139 LS
1292 211 MT 1339 211 LS
1339 211 MT 1339 139 LS
1340 139 MT 1386 139 LS
1386 211 MT 1386 139 LS
1387 211 MT 1433 211 LS
1433 211 MT 1433 139 LS
1434 139 MT 1480 139 LS
1480 211 MT 1480 139 LS
1481 211 MT 1527 211 LS
1527 211 MT 1527 139 LS
1528 139 MT 1575 139 LS
1575 211 MT 1575 139 LS
1576 211 MT 1622 211 LS
1622 211 MT 1622 139 LS
1623 139 MT 1669 139 LS
1669 211 MT 1669 139 LS
1670 211 MT 1716 211 LS
1716 211 MT 1716 139 LS
1717 139 MT 1763 139 LS
1763 211 MT 1763 139 LS
1764 211 MT 1811 211 LS
1811 211 MT 1811 139 LS
1812 139 MT 1858 139 LS
1858 211 MT 1858 139 LS
1859 211 MT 1905 211 LS
1905 211 MT 1905 139 LS
1906 139 MT 1952 139 LS
1952 211 MT 1952 139 LS
1953 211 MT 1999 211 LS
1999 211 MT 1999 139 LS
2000 139 MT 2047 139 LS
2047 211 MT 2047 139 LS
2048 211 MT 2094 211 LS
2094 211 MT 2094 139 LS
2095 139 MT 2141 139 LS
2141 211 MT 2141 139 LS
2142 211 MT 2188 211 LS
2188 211 MT 2188 139 LS
2189 139 MT 2235 139 LS
2235 211 MT 2235 139 LS
2236 211 MT 2283 211 LS
2283 211 MT 2283 139 LS
2284 139 MT 2330 139 LS
2330 211 MT 2330 139 LS
2331 211 MT 2377 211 LS
2377 211 MT 2377 139 LS
2378 139 MT 2424 139 LS
2424 211 MT 2424 139 LS
2425 211 MT 2471 211 LS
2471 211 MT 2471 139 LS
2472 139 MT 2519 139 LS
2519 211 MT 2519 139 LS
2520 211 MT 2566 211 LS
2566 211 MT 2566 139 LS
2567 139 MT 2613 139 LS
2613 211 MT 2613 139 LS
2614 211 MT 2660 211 LS
2660 211 MT 2660 139 LS
2661 139 MT 2707 139 LS
2707 211 MT 2707 139 LS
2708 211 MT 2755 211 LS
2755 211 MT 2755 139 LS
2756 139 MT 2802 139 LS
2802 211 MT 2802 139 LS
2803 211 MT 2849 211 LS
2849 211 MT 2849 139 LS
2850 139 MT 2896 139 LS
2896 211 MT 2896 139 LS
2897 211 MT 2943 211 LS
2943 211 MT 2943 139 LS
2944 139 MT 2991 139 LS
2991 211 MT 2991 139 LS
2992 211 MT 3038 211 LS
3038 211 MT 3038 139 LS
3039 139 MT 3085 139 LS
3085 211 MT 3085 139 LS
3086 211 MT 3132 211 LS
3132 211 MT 3132 139 LS
3133 139 MT 3179 139 LS
3179 211 MT 3179 139 LS
3180 211 MT 3227 211 LS
3227 211 MT 3227 139 LS
3228 139 MT 3274 139 LS
3274 211 MT 3274 139 LS
3275 211 MT 3321 211 LS
3321 211 MT 3321 139 LS
3322 139 MT 3368 139 LS
3368 211 MT 3368 139 LS
3369 211 MT 3416 211 LS
3416 211 MT 3416 139 LS
3417 139 MT 3463 139 LS
3463 211 MT 3463 139 LS
3464 211 MT 3510 211 LS
3510 211 MT 3510 139 LS
3511 139 MT 3557 139 LS
3557 211 MT 3557 139 LS
3558 211 MT 3604 211 LS
3604 211 MT 3604 139 LS
3605 139 MT 3652 139 LS
3652 211 MT 3652 139 LS
3653 211 MT 3699 211 LS
3699 211 MT 3699 139 LS
3700 139 MT 3746 139 LS
3746 211 MT 3746 139 LS
3747 211 MT 3793 211 LS
3793 211 MT 3793 139 LS
3794 139 MT 3840 139 LS
3840 211 MT 3840 139 LS
3841 211 MT 3888 211 LS
3888 211 MT 3888 139 LS
3889 139 MT 3935 139 LS
3935 211 MT 3935 139 LS
3936 211 MT 3982 211 LS
3982 211 MT 3982 139 LS
3983 139 MT 4029 139 LS
4029 211 MT 4029 139 LS
4030 211 MT 4076 211 LS
4076 211 MT 4076 139 LS
4077 139 MT 4124 139 LS
4124 211 MT 4124 139 LS
4125 211 MT 4171 211 LS
4171 211 MT 4171 139 LS
4172 139 MT 4218 139 LS
4218 211 MT 4218 139 LS
4219 211 MT 4265 211 LS
4265 211 MT 4265 139 LS
4266 139 MT 4312 139 LS
4312 211 MT 4312 139 LS
4313 211 MT 4360 211 LS
4360 211 MT 4360 139 LS
4361 139 MT 4407 139 LS
4407 211 MT 4407 139 LS
4408 211 MT 4454 211 LS
4454 211 MT 4454 139 LS
4455 139 MT 4501 139 LS
4501 211 MT 4501 139 LS
4502 211 MT 4548 211 LS
4548 211 MT 4548 139 LS
4549 139 MT 4596 139 LS
4596 211 MT 4596 139 LS
4597 211 MT 4643 211 LS
4643 211 MT 4643 139 LS
4644 139 MT 4690 139 LS
4690 211 MT 4690 139 LS
4691 211 MT 4737 211 LS
4737 211 MT 4737 139 LS
4738 139 MT 4784 139 LS
4784 211 MT 4784 139 LS
4785 211 MT 4832 211 LS
4832 211 MT 4832 139 LS
4833 139 MT 4879 139 LS
4879 211 MT 4879 139 LS
4880 211 MT 4926 211 LS
4926 211 MT 4926 139 LS
4927 139 MT 4973 139 LS
4973 211 MT 4973 139 LS
4974 211 MT 5020 211 LS
5020 211 MT 5020 139 LS
5021 139 MT 5068 139 LS
5068 211 MT 5068 139 LS
5069 211 MT 5115 211 LS
5115 211 MT 5115 139 LS
5116 139 MT 5162 139 LS
5162 211 MT 5162 139 LS
5163 211 MT 5209 211 LS
5209 211 MT 5209 139 LS
5210 139 MT 5256 139 LS
5256 211 MT 5256 139 LS
5257 211 MT 5304 211 LS
5304 211 MT 5304 139 LS
5305 139 MT 5351 139 LS
5351 211 MT 5351 139 LS
5352 211 MT 5398 211 LS
5398 211 MT 5398 139 LS
5399 139 MT 5445 139 LS
5445 211 MT 5445 139 LS
5446 211 MT 5492 211 LS
5492 211 MT 5492 139 LS
5493 139 MT 5540 139 LS
5540 211 MT 5540 139 LS
5541 211 MT 5587 211 LS
5587 211 MT 5587 139 LS
5588 139 MT 5634 139 LS
5634 211 MT 5634 139 LS
5635 211 MT 5681 211 LS
5681 211 MT 5681 139 LS
5682 139 MT 5728 139 LS
5728 211 MT 5728 139 LS
5729 211 MT 5776 211 LS
5776 211 MT 5776 139 LS
5777 139 MT 5823 139 LS
5823 211 MT 5823 139 LS
5824 211 MT 5870 211 LS
5870 211 MT 5870 139 LS
5871 139 MT 5917 139 LS
5917 211 MT 5917 139 LS
5918 211 MT 5964 211 LS
5964 211 MT 5964 139 LS
5965 139 MT 6012 139 LS
6012 211 MT 6012 139 LS
6013 211 MT 6059 211 LS
6059 211 MT 6059 139 LS
6060 139 MT 6106 139 LS
6106 211 MT 6106 139 LS
6107 211 MT 6153 211 LS
6153 211 MT 6153 139 LS
6154 139 MT 6200 139 LS
6200 211 MT 6200 139 LS
6201 211 MT 6248 211 LS
6248 211 MT 6248 139 LS
6249 139 MT 6295 139 LS
6295 211 MT 6295 139 LS
6296 211 MT 6342 211 LS
6342 211 MT 6342 139 LS
6343 139 MT 6389 139 LS
6389 211 MT 6389 139 LS
6390 211 MT 6436 211 LS
6436 211 MT 6436 139 LS
6437 139 MT 6484 139 LS
6484 211 MT 6484 139 LS
6485 211 MT 6531 211 LS
6531 211 MT 6531 139 LS
6532 139 MT 6578 139 LS
6578 211 MT 6578 139 LS
6579 211 MT 6625 211 LS
6625 211 MT 6625 139 LS
6626 139 MT 6672 139 LS
6672 211 MT 6672 139 LS
6673 211 MT 6720 211 LS
6720 211 MT 6720 139 LS
6721 139 MT 6767 139 LS
6767 211 MT 6767 139 LS
6768 211 MT 6814 211 LS
6814 211 MT 6814 139 LS
6815 139 MT 6861 139 LS
6861 211 MT 6861 139 LS
6862 211 MT 6895 211 LS
6895 211 MT 6895 211 LS
(nReset) 9999 LC 401 329 WT TSE RSS
435 237 MT 449 237 LS
1379 237 MT 1393 237 LS
2323 237 MT 2337 237 LS
3267 237 MT 3281 237 LS
4211 237 MT 4225 237 LS
5155 237 MT 5169 237 LS
6099 237 MT 6113 237 LS
439 258 MT 6895 258 LS
6895 258 MT 6895 258 LS
(enable) 9999 LC 401 448 WT TSE RSS
435 356 MT 449 356 LS
1379 356 MT 1393 356 LS
2323 356 MT 2337 356 LS
3267 356 MT 3281 356 LS
4211 356 MT 4225 356 LS
5155 356 MT 5169 356 LS
6099 356 MT 6113 356 LS
(00000001) 23 LC 452 413 WT pop 0 originOffset 33 add RSS
438 377 MT 438 377 LT 482 377 LT 489 413 LT ST
438 449 MT 438 449 LT 482 449 LT 489 413 LT ST
(00000011) 66 LC 503 413 WT pop 0 originOffset 33 add RSS
489 413 MT 489 413 LT 496 377 LT 576 377 LT 583 413 LT ST
489 413 MT 489 413 LT 496 449 LT 576 449 LT 583 413 LT ST
(00000101) 67 LC 597 413 WT pop 0 originOffset 33 add RSS
583 413 MT 583 413 LT 590 377 LT 671 377 LT 678 413 LT ST
583 413 MT 583 413 LT 590 449 LT 671 449 LT 678 413 LT ST
(00000011) 66 LC 692 413 WT pop 0 originOffset 33 add RSS
678 413 MT 678 413 LT 685 377 LT 765 377 LT 772 413 LT ST
678 413 MT 678 413 LT 685 449 LT 765 449 LT 772 413 LT ST
(00001001) 67 LC 786 413 WT pop 0 originOffset 33 add RSS
772 413 MT 772 413 LT 779 377 LT 860 377 LT 867 413 LT ST
772 413 MT 772 413 LT 779 449 LT 860 449 LT 867 413 LT ST
(00000011) 66 LC 881 413 WT pop 0 originOffset 33 add RSS
867 413 MT 867 413 LT 874 377 LT 954 377 LT 961 413 LT ST
867 413 MT 867 413 LT 874 449 LT 954 449 LT 961 413 LT ST
(00000101) 66 LC 975 413 WT pop 0 originOffset 33 add RSS
961 413 MT 961 413 LT 968 377 LT 1048 377 LT 1055 413 LT ST
961 413 MT 961 413 LT 968 449 LT 1048 449 LT 1055 413 LT ST
(00000011) 67 LC 1069 413 WT pop 0 originOffset 33 add RSS
1055 413 MT 1055 413 LT 1062 377 LT 1143 377 LT 1150 413 LT ST
1055 413 MT 1055 413 LT 1062 449 LT 1143 449 LT 1150 413 LT ST
(00010001) 66 LC 1164 413 WT pop 0 originOffset 33 add RSS
1150 413 MT 1150 413 LT 1157 377 LT 1237 377 LT 1244 413 LT ST
1150 413 MT 1150 413 LT 1157 449 LT 1237 449 LT 1244 413 LT ST
(00000011) 67 LC 1258 413 WT pop 0 originOffset 33 add RSS
1244 413 MT 1244 413 LT 1251 377 LT 1332 377 LT 1339 413 LT ST
1244 413 MT 1244 413 LT 1251 449 LT 1332 449 LT 1339 413 LT ST
(00000101) 66 LC 1353 413 WT pop 0 originOffset 33 add RSS
1339 413 MT 1339 413 LT 1346 377 LT 1426 377 LT 1433 413 LT ST
1339 413 MT 1339 413 LT 1346 449 LT 1426 449 LT 1433 413 LT ST
(00000011) 66 LC 1447 413 WT pop 0 originOffset 33 add RSS
1433 413 MT 1433 413 LT 1440 377 LT 1520 377 LT 1527 413 LT ST
1433 413 MT 1433 413 LT 1440 449 LT 1520 449 LT 1527 413 LT ST
(00001001) 67 LC 1541 413 WT pop 0 originOffset 33 add RSS
1527 413 MT 1527 413 LT 1534 377 LT 1615 377 LT 1622 413 LT ST
1527 413 MT 1527 413 LT 1534 449 LT 1615 449 LT 1622 413 LT ST
(00000011) 66 LC 1636 413 WT pop 0 originOffset 33 add RSS
1622 413 MT 1622 413 LT 1629 377 LT 1709 377 LT 1716 413 LT ST
1622 413 MT 1622 413 LT 1629 449 LT 1709 449 LT 1716 413 LT ST
(00000101) 67 LC 1730 413 WT pop 0 originOffset 33 add RSS
1716 413 MT 1716 413 LT 1723 377 LT 1804 377 LT 1811 413 LT ST
1716 413 MT 1716 413 LT 1723 449 LT 1804 449 LT 1811 413 LT ST
(00000011) 66 LC 1825 413 WT pop 0 originOffset 33 add RSS
1811 413 MT 1811 413 LT 1818 377 LT 1898 377 LT 1905 413 LT ST
1811 413 MT 1811 413 LT 1818 449 LT 1898 449 LT 1905 413 LT ST
(00100001) 66 LC 1919 413 WT pop 0 originOffset 33 add RSS
1905 413 MT 1905 413 LT 1912 377 LT 1992 377 LT 1999 413 LT ST
1905 413 MT 1905 413 LT 1912 449 LT 1992 449 LT 1999 413 LT ST
(00000011) 67 LC 2013 413 WT pop 0 originOffset 33 add RSS
1999 413 MT 1999 413 LT 2006 377 LT 2087 377 LT 2094 413 LT ST
1999 413 MT 1999 413 LT 2006 449 LT 2087 449 LT 2094 413 LT ST
(00000101) 66 LC 2108 413 WT pop 0 originOffset 33 add RSS
2094 413 MT 2094 413 LT 2101 377 LT 2181 377 LT 2188 413 LT ST
2094 413 MT 2094 413 LT 2101 449 LT 2181 449 LT 2188 413 LT ST
(00000011) 67 LC 2202 413 WT pop 0 originOffset 33 add RSS
2188 413 MT 2188 413 LT 2195 377 LT 2276 377 LT 2283 413 LT ST
2188 413 MT 2188 413 LT 2195 449 LT 2276 449 LT 2283 413 LT ST
(00001001) 66 LC 2297 413 WT pop 0 originOffset 33 add RSS
2283 413 MT 2283 413 LT 2290 377 LT 2370 377 LT 2377 413 LT ST
2283 413 MT 2283 413 LT 2290 449 LT 2370 449 LT 2377 413 LT ST
(00000011) 66 LC 2391 413 WT pop 0 originOffset 33 add RSS
2377 413 MT 2377 413 LT 2384 377 LT 2464 377 LT 2471 413 LT ST
2377 413 MT 2377 413 LT 2384 449 LT 2464 449 LT 2471 413 LT ST
(00000101) 67 LC 2485 413 WT pop 0 originOffset 33 add RSS
2471 413 MT 2471 413 LT 2478 377 LT 2559 377 LT 2566 413 LT ST
2471 413 MT 2471 413 LT 2478 449 LT 2559 449 LT 2566 413 LT ST
(00000011) 66 LC 2580 413 WT pop 0 originOffset 33 add RSS
2566 413 MT 2566 413 LT 2573 377 LT 2653 377 LT 2660 413 LT ST
2566 413 MT 2566 413 LT 2573 449 LT 2653 449 LT 2660 413 LT ST
(00010001) 67 LC 2674 413 WT pop 0 originOffset 33 add RSS
2660 413 MT 2660 413 LT 2667 377 LT 2748 377 LT 2755 413 LT ST
2660 413 MT 2660 413 LT 2667 449 LT 2748 449 LT 2755 413 LT ST
(00000011) 66 LC 2769 413 WT pop 0 originOffset 33 add RSS
2755 413 MT 2755 413 LT 2762 377 LT 2842 377 LT 2849 413 LT ST
2755 413 MT 2755 413 LT 2762 449 LT 2842 449 LT 2849 413 LT ST
(00000101) 66 LC 2863 413 WT pop 0 originOffset 33 add RSS
2849 413 MT 2849 413 LT 2856 377 LT 2936 377 LT 2943 413 LT ST
2849 413 MT 2849 413 LT 2856 449 LT 2936 449 LT 2943 413 LT ST
(00000011) 67 LC 2957 413 WT pop 0 originOffset 33 add RSS
2943 413 MT 2943 413 LT 2950 377 LT 3031 377 LT 3038 413 LT ST
2943 413 MT 2943 413 LT 2950 449 LT 3031 449 LT 3038 413 LT ST
(00001001) 66 LC 3052 413 WT pop 0 originOffset 33 add RSS
3038 413 MT 3038 413 LT 3045 377 LT 3125 377 LT 3132 413 LT ST
3038 413 MT 3038 413 LT 3045 449 LT 3125 449 LT 3132 413 LT ST
(00000011) 67 LC 3146 413 WT pop 0 originOffset 33 add RSS
3132 413 MT 3132 413 LT 3139 377 LT 3220 377 LT 3227 413 LT ST
3132 413 MT 3132 413 LT 3139 449 LT 3220 449 LT 3227 413 LT ST
(00000101) 66 LC 3241 413 WT pop 0 originOffset 33 add RSS
3227 413 MT 3227 413 LT 3234 377 LT 3314 377 LT 3321 413 LT ST
3227 413 MT 3227 413 LT 3234 449 LT 3314 449 LT 3321 413 LT ST
(00000011) 67 LC 3335 413 WT pop 0 originOffset 33 add RSS
3321 413 MT 3321 413 LT 3328 377 LT 3409 377 LT 3416 413 LT ST
3321 413 MT 3321 413 LT 3328 449 LT 3409 449 LT 3416 413 LT ST
(01000001) 66 LC 3430 413 WT pop 0 originOffset 33 add RSS
3416 413 MT 3416 413 LT 3423 377 LT 3503 377 LT 3510 413 LT ST
3416 413 MT 3416 413 LT 3423 449 LT 3503 449 LT 3510 413 LT ST
(00000011) 66 LC 3524 413 WT pop 0 originOffset 33 add RSS
3510 413 MT 3510 413 LT 3517 377 LT 3597 377 LT 3604 413 LT ST
3510 413 MT 3510 413 LT 3517 449 LT 3597 449 LT 3604 413 LT ST
(00000101) 67 LC 3618 413 WT pop 0 originOffset 33 add RSS
3604 413 MT 3604 413 LT 3611 377 LT 3692 377 LT 3699 413 LT ST
3604 413 MT 3604 413 LT 3611 449 LT 3692 449 LT 3699 413 LT ST
(00000011) 66 LC 3713 413 WT pop 0 originOffset 33 add RSS
3699 413 MT 3699 413 LT 3706 377 LT 3786 377 LT 3793 413 LT ST
3699 413 MT 3699 413 LT 3706 449 LT 3786 449 LT 3793 413 LT ST
(00001001) 67 LC 3807 413 WT pop 0 originOffset 33 add RSS
3793 413 MT 3793 413 LT 3800 377 LT 3881 377 LT 3888 413 LT ST
3793 413 MT 3793 413 LT 3800 449 LT 3881 449 LT 3888 413 LT ST
(00000011) 66 LC 3902 413 WT pop 0 originOffset 33 add RSS
3888 413 MT 3888 413 LT 3895 377 LT 3975 377 LT 3982 413 LT ST
3888 413 MT 3888 413 LT 3895 449 LT 3975 449 LT 3982 413 LT ST
(00000101) 66 LC 3996 413 WT pop 0 originOffset 33 add RSS
3982 413 MT 3982 413 LT 3989 377 LT 4069 377 LT 4076 413 LT ST
3982 413 MT 3982 413 LT 3989 449 LT 4069 449 LT 4076 413 LT ST
(00000011) 67 LC 4090 413 WT pop 0 originOffset 33 add RSS
4076 413 MT 4076 413 LT 4083 377 LT 4164 377 LT 4171 413 LT ST
4076 413 MT 4076 413 LT 4083 449 LT 4164 449 LT 4171 413 LT ST
(00010001) 66 LC 4185 413 WT pop 0 originOffset 33 add RSS
4171 413 MT 4171 413 LT 4178 377 LT 4258 377 LT 4265 413 LT ST
4171 413 MT 4171 413 LT 4178 449 LT 4258 449 LT 4265 413 LT ST
(00000011) 67 LC 4279 413 WT pop 0 originOffset 33 add RSS
4265 413 MT 4265 413 LT 4272 377 LT 4353 377 LT 4360 413 LT ST
4265 413 MT 4265 413 LT 4272 449 LT 4353 449 LT 4360 413 LT ST
(00000101) 66 LC 4374 413 WT pop 0 originOffset 33 add RSS
4360 413 MT 4360 413 LT 4367 377 LT 4447 377 LT 4454 413 LT ST
4360 413 MT 4360 413 LT 4367 449 LT 4447 449 LT 4454 413 LT ST
(00000011) 66 LC 4468 413 WT pop 0 originOffset 33 add RSS
4454 413 MT 4454 413 LT 4461 377 LT 4541 377 LT 4548 413 LT ST
4454 413 MT 4454 413 LT 4461 449 LT 4541 449 LT 4548 413 LT ST
(00001001) 67 LC 4562 413 WT pop 0 originOffset 33 add RSS
4548 413 MT 4548 413 LT 4555 377 LT 4636 377 LT 4643 413 LT ST
4548 413 MT 4548 413 LT 4555 449 LT 4636 449 LT 4643 413 LT ST
(00000011) 66 LC 4657 413 WT pop 0 originOffset 33 add RSS
4643 413 MT 4643 413 LT 4650 377 LT 4730 377 LT 4737 413 LT ST
4643 413 MT 4643 413 LT 4650 449 LT 4730 449 LT 4737 413 LT ST
(00000101) 67 LC 4751 413 WT pop 0 originOffset 33 add RSS
4737 413 MT 4737 413 LT 4744 377 LT 4825 377 LT 4832 413 LT ST
4737 413 MT 4737 413 LT 4744 449 LT 4825 449 LT 4832 413 LT ST
(00000011) 66 LC 4846 413 WT pop 0 originOffset 33 add RSS
4832 413 MT 4832 413 LT 4839 377 LT 4919 377 LT 4926 413 LT ST
4832 413 MT 4832 413 LT 4839 449 LT 4919 449 LT 4926 413 LT ST
(00100001) 66 LC 4940 413 WT pop 0 originOffset 33 add RSS
4926 413 MT 4926 413 LT 4933 377 LT 5013 377 LT 5020 413 LT ST
4926 413 MT 4926 413 LT 4933 449 LT 5013 449 LT 5020 413 LT ST
(00000011) 67 LC 5034 413 WT pop 0 originOffset 33 add RSS
5020 413 MT 5020 413 LT 5027 377 LT 5108 377 LT 5115 413 LT ST
5020 413 MT 5020 413 LT 5027 449 LT 5108 449 LT 5115 413 LT ST
(00000101) 66 LC 5129 413 WT pop 0 originOffset 33 add RSS
5115 413 MT 5115 413 LT 5122 377 LT 5202 377 LT 5209 413 LT ST
5115 413 MT 5115 413 LT 5122 449 LT 5202 449 LT 5209 413 LT ST
(00000011) 67 LC 5223 413 WT pop 0 originOffset 33 add RSS
5209 413 MT 5209 413 LT 5216 377 LT 5297 377 LT 5304 413 LT ST
5209 413 MT 5209 413 LT 5216 449 LT 5297 449 LT 5304 413 LT ST
(00001001) 66 LC 5318 413 WT pop 0 originOffset 33 add RSS
5304 413 MT 5304 413 LT 5311 377 LT 5391 377 LT 5398 413 LT ST
5304 413 MT 5304 413 LT 5311 449 LT 5391 449 LT 5398 413 LT ST
(00000011) 66 LC 5412 413 WT pop 0 originOffset 33 add RSS
5398 413 MT 5398 413 LT 5405 377 LT 5485 377 LT 5492 413 LT ST
5398 413 MT 5398 413 LT 5405 449 LT 5485 449 LT 5492 413 LT ST
(00000101) 67 LC 5506 413 WT pop 0 originOffset 33 add RSS
5492 413 MT 5492 413 LT 5499 377 LT 5580 377 LT 5587 413 LT ST
5492 413 MT 5492 413 LT 5499 449 LT 5580 449 LT 5587 413 LT ST
(00000011) 66 LC 5601 413 WT pop 0 originOffset 33 add RSS
5587 413 MT 5587 413 LT 5594 377 LT 5674 377 LT 5681 413 LT ST
5587 413 MT 5587 413 LT 5594 449 LT 5674 449 LT 5681 413 LT ST
(00010001) 67 LC 5695 413 WT pop 0 originOffset 33 add RSS
5681 413 MT 5681 413 LT 5688 377 LT 5769 377 LT 5776 413 LT ST
5681 413 MT 5681 413 LT 5688 449 LT 5769 449 LT 5776 413 LT ST
(00000011) 66 LC 5790 413 WT pop 0 originOffset 33 add RSS
5776 413 MT 5776 413 LT 5783 377 LT 5863 377 LT 5870 413 LT ST
5776 413 MT 5776 413 LT 5783 449 LT 5863 449 LT 5870 413 LT ST
(00000101) 66 LC 5884 413 WT pop 0 originOffset 33 add RSS
5870 413 MT 5870 413 LT 5877 377 LT 5957 377 LT 5964 413 LT ST
5870 413 MT 5870 413 LT 5877 449 LT 5957 449 LT 5964 413 LT ST
(00000011) 67 LC 5978 413 WT pop 0 originOffset 33 add RSS
5964 413 MT 5964 413 LT 5971 377 LT 6052 377 LT 6059 413 LT ST
5964 413 MT 5964 413 LT 5971 449 LT 6052 449 LT 6059 413 LT ST
(00001001) 66 LC 6073 413 WT pop 0 originOffset 33 add RSS
6059 413 MT 6059 413 LT 6066 377 LT 6146 377 LT 6153 413 LT ST
6059 413 MT 6059 413 LT 6066 449 LT 6146 449 LT 6153 413 LT ST
(00000011) 67 LC 6167 413 WT pop 0 originOffset 33 add RSS
6153 413 MT 6153 413 LT 6160 377 LT 6241 377 LT 6248 413 LT ST
6153 413 MT 6153 413 LT 6160 449 LT 6241 449 LT 6248 413 LT ST
(00000101) 66 LC 6262 413 WT pop 0 originOffset 33 add RSS
6248 413 MT 6248 413 LT 6255 377 LT 6335 377 LT 6342 413 LT ST
6248 413 MT 6248 413 LT 6255 449 LT 6335 449 LT 6342 413 LT ST
(00000011) 66 LC 6356 413 WT pop 0 originOffset 33 add RSS
6342 413 MT 6342 413 LT 6349 377 LT 6429 377 LT 6436 413 LT ST
6342 413 MT 6342 413 LT 6349 449 LT 6429 449 LT 6436 413 LT ST
(10000001) 67 LC 6450 413 WT pop 0 originOffset 33 add RSS
6436 413 MT 6436 413 LT 6443 377 LT 6524 377 LT 6531 413 LT ST
6436 413 MT 6436 413 LT 6443 449 LT 6524 449 LT 6531 413 LT ST
(00000011) 66 LC 6545 413 WT pop 0 originOffset 33 add RSS
6531 413 MT 6531 413 LT 6538 377 LT 6618 377 LT 6625 413 LT ST
6531 413 MT 6531 413 LT 6538 449 LT 6618 449 LT 6625 413 LT ST
(00000101) 67 LC 6639 413 WT pop 0 originOffset 33 add RSS
6625 413 MT 6625 413 LT 6632 377 LT 6713 377 LT 6720 413 LT ST
6625 413 MT 6625 413 LT 6632 449 LT 6713 449 LT 6720 413 LT ST
(00000011) 66 LC 6734 413 WT pop 0 originOffset 33 add RSS
6720 413 MT 6720 413 LT 6727 377 LT 6807 377 LT 6814 413 LT ST
6720 413 MT 6720 413 LT 6727 449 LT 6807 449 LT 6814 413 LT ST
(00001001) 53 LC 6828 413 WT pop 0 originOffset 33 add RSS
6814 413 MT 6814 413 LT 6821 377 LT 6895 377 LT ST
6814 413 MT 6814 413 LT 6821 449 LT 6895 449 LT ST
(\(7\)) 9999 LC 401 567 WT TSE RSS
435 475 MT 449 475 LS
1379 475 MT 1393 475 LS
2323 475 MT 2337 475 LS
3267 475 MT 3281 475 LS
4211 475 MT 4225 475 LS
5155 475 MT 5169 475 LS
6099 475 MT 6113 475 LS
439 568 MT 6436 568 LS
6436 568 MT 6436 496 LS
6437 496 MT 6531 496 LS
6531 568 MT 6531 496 LS
6532 568 MT 6895 568 LS
6895 568 MT 6895 568 LS
(\(6\)) 9999 LC 401 686 WT TSE RSS
435 594 MT 449 594 LS
1379 594 MT 1393 594 LS
2323 594 MT 2337 594 LS
3267 594 MT 3281 594 LS
4211 594 MT 4225 594 LS
5155 594 MT 5169 594 LS
6099 594 MT 6113 594 LS
439 687 MT 3416 687 LS
3416 687 MT 3416 615 LS
3417 615 MT 3510 615 LS
3510 687 MT 3510 615 LS
3511 687 MT 6895 687 LS
6895 687 MT 6895 687 LS
(\(5\)) 9999 LC 401 805 WT TSE RSS
435 713 MT 449 713 LS
1379 713 MT 1393 713 LS
2323 713 MT 2337 713 LS
3267 713 MT 3281 713 LS
4211 713 MT 4225 713 LS
5155 713 MT 5169 713 LS
6099 713 MT 6113 713 LS
439 806 MT 1905 806 LS
1905 806 MT 1905 734 LS
1906 734 MT 1999 734 LS
1999 806 MT 1999 734 LS
2000 806 MT 4926 806 LS
4926 806 MT 4926 734 LS
4927 734 MT 5020 734 LS
5020 806 MT 5020 734 LS
5021 806 MT 6895 806 LS
6895 806 MT 6895 806 LS
(\(4\)) 9999 LC 401 924 WT TSE RSS
435 832 MT 449 832 LS
1379 832 MT 1393 832 LS
2323 832 MT 2337 832 LS
3267 832 MT 3281 832 LS
4211 832 MT 4225 832 LS
5155 832 MT 5169 832 LS
6099 832 MT 6113 832 LS
439 925 MT 1150 925 LS
1150 925 MT 1150 853 LS
1151 853 MT 1244 853 LS
1244 925 MT 1244 853 LS
1245 925 MT 2660 925 LS
2660 925 MT 2660 853 LS
2661 853 MT 2755 853 LS
2755 925 MT 2755 853 LS
2756 925 MT 4171 925 LS
4171 925 MT 4171 853 LS
4172 853 MT 4265 853 LS
4265 925 MT 4265 853 LS
4266 925 MT 5681 925 LS
5681 925 MT 5681 853 LS
5682 853 MT 5776 853 LS
5776 925 MT 5776 853 LS
5777 925 MT 6895 925 LS
6895 925 MT 6895 925 LS
(\(3\)) 9999 LC 401 1043 WT TSE RSS
435 951 MT 449 951 LS
1379 951 MT 1393 951 LS
2323 951 MT 2337 951 LS
3267 951 MT 3281 951 LS
4211 951 MT 4225 951 LS
5155 951 MT 5169 951 LS
6099 951 MT 6113 951 LS
439 1044 MT 772 1044 LS
772 1044 MT 772 972 LS
773 972 MT 867 972 LS
867 1044 MT 867 972 LS
868 1044 MT 1527 1044 LS
1527 1044 MT 1527 972 LS
1528 972 MT 1622 972 LS
1622 1044 MT 1622 972 LS
1623 1044 MT 2283 1044 LS
2283 1044 MT 2283 972 LS
2284 972 MT 2377 972 LS
2377 1044 MT 2377 972 LS
2378 1044 MT 3038 1044 LS
3038 1044 MT 3038 972 LS
3039 972 MT 3132 972 LS
3132 1044 MT 3132 972 LS
3133 1044 MT 3793 1044 LS
3793 1044 MT 3793 972 LS
3794 972 MT 3888 972 LS
3888 1044 MT 3888 972 LS
3889 1044 MT 4548 1044 LS
4548 1044 MT 4548 972 LS
4549 972 MT 4643 972 LS
4643 1044 MT 4643 972 LS
4644 1044 MT 5304 1044 LS
5304 1044 MT 5304 972 LS
5305 972 MT 5398 972 LS
5398 1044 MT 5398 972 LS
5399 1044 MT 6059 1044 LS
6059 1044 MT 6059 972 LS
6060 972 MT 6153 972 LS
6153 1044 MT 6153 972 LS
6154 1044 MT 6814 1044 LS
6814 1044 MT 6814 972 LS
6815 972 MT 6895 972 LS
6895 972 MT 6895 972 LS
(\(2\)) 9999 LC 401 1162 WT TSE RSS
435 1070 MT 449 1070 LS
1379 1070 MT 1393 1070 LS
2323 1070 MT 2337 1070 LS
3267 1070 MT 3281 1070 LS
4211 1070 MT 4225 1070 LS
5155 1070 MT 5169 1070 LS
6099 1070 MT 6113 1070 LS
439 1163 MT 583 1163 LS
583 1163 MT 583 1091 LS
584 1091 MT 678 1091 LS
678 1163 MT 678 1091 LS
679 1163 MT 961 1163 LS
961 1163 MT 961 1091 LS
962 1091 MT 1055 1091 LS
1055 1163 MT 1055 1091 LS
1056 1163 MT 1339 1163 LS
1339 1163 MT 1339 1091 LS
1340 1091 MT 1433 1091 LS
1433 1163 MT 1433 1091 LS
1434 1163 MT 1716 1163 LS
1716 1163 MT 1716 1091 LS
1717 1091 MT 1811 1091 LS
1811 1163 MT 1811 1091 LS
1812 1163 MT 2094 1163 LS
2094 1163 MT 2094 1091 LS
2095 1091 MT 2188 1091 LS
2188 1163 MT 2188 1091 LS
2189 1163 MT 2471 1163 LS
2471 1163 MT 2471 1091 LS
2472 1091 MT 2566 1091 LS
2566 1163 MT 2566 1091 LS
2567 1163 MT 2849 1163 LS
2849 1163 MT 2849 1091 LS
2850 1091 MT 2943 1091 LS
2943 1163 MT 2943 1091 LS
2944 1163 MT 3227 1163 LS
3227 1163 MT 3227 1091 LS
3228 1091 MT 3321 1091 LS
3321 1163 MT 3321 1091 LS
3322 1163 MT 3604 1163 LS
3604 1163 MT 3604 1091 LS
3605 1091 MT 3699 1091 LS
3699 1163 MT 3699 1091 LS
3700 1163 MT 3982 1163 LS
3982 1163 MT 3982 1091 LS
3983 1091 MT 4076 1091 LS
4076 1163 MT 4076 1091 LS
4077 1163 MT 4360 1163 LS
4360 1163 MT 4360 1091 LS
4361 1091 MT 4454 1091 LS
4454 1163 MT 4454 1091 LS
4455 1163 MT 4737 1163 LS
4737 1163 MT 4737 1091 LS
4738 1091 MT 4832 1091 LS
4832 1163 MT 4832 1091 LS
4833 1163 MT 5115 1163 LS
5115 1163 MT 5115 1091 LS
5116 1091 MT 5209 1091 LS
5209 1163 MT 5209 1091 LS
5210 1163 MT 5492 1163 LS
5492 1163 MT 5492 1091 LS
5493 1091 MT 5587 1091 LS
5587 1163 MT 5587 1091 LS
5588 1163 MT 5870 1163 LS
5870 1163 MT 5870 1091 LS
5871 1091 MT 5964 1091 LS
5964 1163 MT 5964 1091 LS
5965 1163 MT 6248 1163 LS
6248 1163 MT 6248 1091 LS
6249 1091 MT 6342 1091 LS
6342 1163 MT 6342 1091 LS
6343 1163 MT 6625 1163 LS
6625 1163 MT 6625 1091 LS
6626 1091 MT 6720 1091 LS
6720 1163 MT 6720 1091 LS
6721 1163 MT 6895 1163 LS
6895 1163 MT 6895 1163 LS
(\(1\)) 9999 LC 401 1281 WT TSE RSS
435 1189 MT 449 1189 LS
1379 1189 MT 1393 1189 LS
2323 1189 MT 2337 1189 LS
3267 1189 MT 3281 1189 LS
4211 1189 MT 4225 1189 LS
5155 1189 MT 5169 1189 LS
6099 1189 MT 6113 1189 LS
439 1282 MT 489 1282 LS
489 1282 MT 489 1210 LS
490 1210 MT 583 1210 LS
583 1282 MT 583 1210 LS
584 1282 MT 678 1282 LS
678 1282 MT 678 1210 LS
679 1210 MT 772 1210 LS
772 1282 MT 772 1210 LS
773 1282 MT 867 1282 LS
867 1282 MT 867 1210 LS
868 1210 MT 961 1210 LS
961 1282 MT 961 1210 LS
962 1282 MT 1055 1282 LS
1055 1282 MT 1055 1210 LS
1056 1210 MT 1150 1210 LS
1150 1282 MT 1150 1210 LS
1151 1282 MT 1244 1282 LS
1244 1282 MT 1244 1210 LS
1245 1210 MT 1339 1210 LS
1339 1282 MT 1339 1210 LS
1340 1282 MT 1433 1282 LS
1433 1282 MT 1433 1210 LS
1434 1210 MT 1527 1210 LS
1527 1282 MT 1527 1210 LS
1528 1282 MT 1622 1282 LS
1622 1282 MT 1622 1210 LS
1623 1210 MT 1716 1210 LS
1716 1282 MT 1716 1210 LS
1717 1282 MT 1811 1282 LS
1811 1282 MT 1811 1210 LS
1812 1210 MT 1905 1210 LS
1905 1282 MT 1905 1210 LS
1906 1282 MT 1999 1282 LS
1999 1282 MT 1999 1210 LS
2000 1210 MT 2094 1210 LS
2094 1282 MT 2094 1210 LS
2095 1282 MT 2188 1282 LS
2188 1282 MT 2188 1210 LS
2189 1210 MT 2283 1210 LS
2283 1282 MT 2283 1210 LS
2284 1282 MT 2377 1282 LS
2377 1282 MT 2377 1210 LS
2378 1210 MT 2471 1210 LS
2471 1282 MT 2471 1210 LS
2472 1282 MT 2566 1282 LS
2566 1282 MT 2566 1210 LS
2567 1210 MT 2660 1210 LS
2660 1282 MT 2660 1210 LS
2661 1282 MT 2755 1282 LS
2755 1282 MT 2755 1210 LS
2756 1210 MT 2849 1210 LS
2849 1282 MT 2849 1210 LS
2850 1282 MT 2943 1282 LS
2943 1282 MT 2943 1210 LS
2944 1210 MT 3038 1210 LS
3038 1282 MT 3038 1210 LS
3039 1282 MT 3132 1282 LS
3132 1282 MT 3132 1210 LS
3133 1210 MT 3227 1210 LS
3227 1282 MT 3227 1210 LS
3228 1282 MT 3321 1282 LS
3321 1282 MT 3321 1210 LS
3322 1210 MT 3416 1210 LS
3416 1282 MT 3416 1210 LS
3417 1282 MT 3510 1282 LS
3510 1282 MT 3510 1210 LS
3511 1210 MT 3604 1210 LS
3604 1282 MT 3604 1210 LS
3605 1282 MT 3699 1282 LS
3699 1282 MT 3699 1210 LS
3700 1210 MT 3793 1210 LS
3793 1282 MT 3793 1210 LS
3794 1282 MT 3888 1282 LS
3888 1282 MT 3888 1210 LS
3889 1210 MT 3982 1210 LS
3982 1282 MT 3982 1210 LS
3983 1282 MT 4076 1282 LS
4076 1282 MT 4076 1210 LS
4077 1210 MT 4171 1210 LS
4171 1282 MT 4171 1210 LS
4172 1282 MT 4265 1282 LS
4265 1282 MT 4265 1210 LS
4266 1210 MT 4360 1210 LS
4360 1282 MT 4360 1210 LS
4361 1282 MT 4454 1282 LS
4454 1282 MT 4454 1210 LS
4455 1210 MT 4548 1210 LS
4548 1282 MT 4548 1210 LS
4549 1282 MT 4643 1282 LS
4643 1282 MT 4643 1210 LS
4644 1210 MT 4737 1210 LS
4737 1282 MT 4737 1210 LS
4738 1282 MT 4832 1282 LS
4832 1282 MT 4832 1210 LS
4833 1210 MT 4926 1210 LS
4926 1282 MT 4926 1210 LS
4927 1282 MT 5020 1282 LS
5020 1282 MT 5020 1210 LS
5021 1210 MT 5115 1210 LS
5115 1282 MT 5115 1210 LS
5116 1282 MT 5209 1282 LS
5209 1282 MT 5209 1210 LS
5210 1210 MT 5304 1210 LS
5304 1282 MT 5304 1210 LS
5305 1282 MT 5398 1282 LS
5398 1282 MT 5398 1210 LS
5399 1210 MT 5492 1210 LS
5492 1282 MT 5492 1210 LS
5493 1282 MT 5587 1282 LS
5587 1282 MT 5587 1210 LS
5588 1210 MT 5681 1210 LS
5681 1282 MT 5681 1210 LS
5682 1282 MT 5776 1282 LS
5776 1282 MT 5776 1210 LS
5777 1210 MT 5870 1210 LS
5870 1282 MT 5870 1210 LS
5871 1282 MT 5964 1282 LS
5964 1282 MT 5964 1210 LS
5965 1210 MT 6059 1210 LS
6059 1282 MT 6059 1210 LS
6060 1282 MT 6153 1282 LS
6153 1282 MT 6153 1210 LS
6154 1210 MT 6248 1210 LS
6248 1282 MT 6248 1210 LS
6249 1282 MT 6342 1282 LS
6342 1282 MT 6342 1210 LS
6343 1210 MT 6436 1210 LS
6436 1282 MT 6436 1210 LS
6437 1282 MT 6531 1282 LS
6531 1282 MT 6531 1210 LS
6532 1210 MT 6625 1210 LS
6625 1282 MT 6625 1210 LS
6626 1282 MT 6720 1282 LS
6720 1282 MT 6720 1210 LS
6721 1210 MT 6814 1210 LS
6814 1282 MT 6814 1210 LS
6815 1282 MT 6895 1282 LS
6895 1282 MT 6895 1282 LS
(\(0\)) 9999 LC 401 1400 WT TSE RSS
435 1308 MT 449 1308 LS
1379 1308 MT 1393 1308 LS
2323 1308 MT 2337 1308 LS
3267 1308 MT 3281 1308 LS
4211 1308 MT 4225 1308 LS
5155 1308 MT 5169 1308 LS
6099 1308 MT 6113 1308 LS
439 1329 MT 6895 1329 LS
6895 1329 MT 6895 1329 LS
% draw footer
(Entity:pwm_tb  Architecture:tb  Date: Thu Nov 17 23:10:15 W. Europe Standard Time 2016   Row: 1 Page: 1) 9999 LC 118 4841 WT TSW RSS
grestore
showpage
%%EOF
